{
  "project_info": {
    "project_number": "514229903462",
    "project_id": "checkin-location-16f41",
    "storage_bucket": "checkin-location-16f41.appspot.com"
  },
  "client": [
    {
      "client_info": {
        "mobilesdk_app_id": "1:514229903462:android:c3bd471ed996a7972dcda7",
        "android_client_info": {
          "package_name": "com.checkinlocation"
        }
      },
      "oauth_client": [
        {
          "client_id": "514229903462-94c70speu116budb6umc7vg5grh0je09.apps.googleusercontent.com",
          "client_type": 3
        }
      ],
      "api_key": [
        {
          "current_key": "AIzaSyDsEZok0hU7nvZdUOtB5QPvbJ07WcYiSdw"
        }
      ],
      "services": {
        "appinvite_service": {
          "other_platform_oauth_client": [
            {
              "client_id": "514229903462-94c70speu116budb6umc7vg5grh0je09.apps.googleusercontent.com",
              "client_type": 3
            },
            {
              "client_id": "514229903462-e5it8skhqpo75n8l0c511k148d1luvd6.apps.googleusercontent.com",
              "client_type": 2,
              "ios_info": {
                "bundle_id": "com.checkinlocation.mobile"
              }
            }
          ]
        }
      }
    }
  ],
  "configuration_version": "1"
}